{
  "batch": 65,
  "verified": [
    {
      "name": "Star Wars Databank",
      "slug": "star-wars-databank",
      "emoji": "🎬",
      "tagline": "Star Wars Databank — Info and data from the Star Wars databank in the form o…",
      "description": "Star Wars Databank exposes info and data from the Star Wars databank in the form of an API We verified a keyless GET endpoint returning JSON (Video). Check the provider docs for rate limits and terms before production use.",
      "sourceCategory": "Video",
      "docsUrl": "https://starwars-databank.vercel.app/",
      "baseUrl": "https://starwars-databank-server.onrender.com",
      "sampleEndpoint": "/api/v1/creatures/",
      "latencyMs": 6716,
      "corsObserved": true,
      "httpStatus": 200,
      "sampleJson": {
        "info": {
          "total": 75,
          "page": 1,
          "limit": 10,
          "next": "/api/v1/creatures?page=2&limit=10",
          "prev": null
        },
        "data": [
          {
            "_id": "640b2f06b6a2a8104f0a0d6d",
            "name": "Acklay",
            "description": "A surprisingly agile fury of sharp claws and pointed fangs, the vicious acklay was one of the three arena creatures unleashed in the Geonosian execution arena, dispatched to kill Anakin Skywalker, Padme Amidala, and Obi-Wan Kenobi. The Geonosian picadors steered the acklay toward Obi-Wan, who was able to outmaneuver the beast. A clumsy yet powerful strike from one of its claws sheered the chains that bound Kenobi. The beast continued to pursue the Jedi Knight, rending large holes in the hard-packed sand with its vicious stabs. It even shrugged off a pike attack, chomping through the offending polearm with bestial rage.",
            "image": "https://lumiere-a.akamaihd.net/v1/images/databank_acklay_01_169_e544124f.jpeg",
            "__v": 0
          },
          {
            "_id": "640b2f06b6a2a8104f0a0d6e",
            "name": "Anooba",
            "description": "These vicious creatures lived throughout the Outer Rim. They had pronounced lower jaws and sharp teeth, fearsome growls and thick patches of fur across their spines. They were trainable animals and during the Clone Wars, the bounty hunter Embo took one named Marrok as a working pet. A stylized Anooba also appears on the armor of Sabine Wren.",
            "image": "https://lumiere-a.akamaihd.net/v1/images/anooba_deaed00b.jpeg",
            "__v": 0
          }
        ]
      },
      "freeTier": "Free — limits not published",
      "rateLimit": "Unpublished",
      "dataLicense": "Unverified",
      "commercialUse": "unclear",
      "auth": "none",
      "notes": "Auto-probed https://starwars-databank-server.onrender.com/api/v1/creatures/"
    }
  ],
  "skipped": []
}
