{
  "batch": 44,
  "verified": [
    {
      "name": "Episodate",
      "slug": "episodate",
      "emoji": "📺",
      "tagline": "TV show database with schedules and air dates",
      "description": "Episodate returns paginated TV series lists, search results and show details with next-episode dates as JSON. Keyless read API — companion to TVMaze for discovery widgets.",
      "sourceCategory": "Video",
      "docsUrl": "https://www.episodate.com",
      "baseUrl": "https://www.episodate.com",
      "sampleEndpoint": "/api/most-popular?page=1",
      "latencyMs": 1618,
      "corsObserved": true,
      "httpStatus": 200,
      "sampleJson": {
        "total": 29772,
        "page": 1,
        "pages": 1489,
        "tv_shows": [
          {
            "id": 35624,
            "name": "The Flash",
            "permalink": "the-flash",
            "start_date": "2014-10-07",
            "end_date": null,
            "country": "US",
            "network": "The CW",
            "status": "Ended"
          },
          {
            "id": 23455,
            "name": "Game of Thrones",
            "permalink": "game-of-thrones",
            "start_date": "2011-04-17",
            "end_date": null,
            "country": "US",
            "network": "HBO",
            "status": "Ended"
          }
        ]
      },
      "freeTier": "Free — limits not published",
      "rateLimit": "Unpublished",
      "dataLicense": "Unverified",
      "commercialUse": "unclear",
      "auth": "none"
    },
    {
      "name": "openFDA",
      "slug": "openfda",
      "emoji": "💊",
      "tagline": "FDA drug and device open data",
      "description": "Drug labels, adverse events and recalls. Modest rates without a key; register to raise limits.",
      "sourceCategory": "Health",
      "docsUrl": "https://api.fda.gov",
      "baseUrl": "https://api.fda.gov",
      "sampleEndpoint": "/drug/label.json?limit=1",
      "latencyMs": 1107,
      "corsObserved": true,
      "httpStatus": 200,
      "sampleJson": {
        "meta": {
          "disclaimer": "Do not rely on openFDA to make decisions regarding medical care. While we make every effort to ensure that data is accurate, you should assume all results are unvalidated. We may limit or otherwise restrict your access to the API in line with our Terms of Service.",
          "terms": "https://open.fda.gov/terms/",
          "license": "https://open.fda.gov/license/",
          "last_updated": "2026-07-03",
          "results": {
            "skip": 0,
            "limit": 1,
            "total": 260158
          }
        },
        "results": [
          {
            "effective_time": "20210902",
            "inactive_ingredient": [
              "INACTIVE INGREDIENTS Sucrose"
            ],
            "purpose": [
              "USES USES: Temporary Relief - Acne, Boils* * Claims based on traditional homeopathic practice, not accepted medical evidence. Not FDA evaluated."
            ],
            "keep_out_of_reach_of_children": [
              "Keep this and all medication out of reach of children"
            ],
            "warnings": [
              "WARNINGS This product is to be used for self-limiting conditions If symptoms do not improve in 4 days, or worsen, discontinue use and seek assistance of health professional. As with any drug, if you are pregnant, or nursing a baby, seek professional advice before taking this product. Keep this and all medication out of reach of children Do not use if capseal is broken or missing. Close the cap tightly after use."
            ],
            "questions": [
              "QUESTIONS OR COMMENTS www.Rxhomeo.com | 1.888.2796642 | info@rxhomeo.com Rxhomeo, Inc 3200 Commander Dr, Ste 100-W1, Carrollton, TX 75006 USA"
            ],
            "spl_product_data_elements": [
              "SILICEA SILICEA SUCROSE SILICON DIOXIDE SILICON DIOXIDE"
            ],
            "openfda": {
              "brand_name": [
                "SILICEA"
              ],
              "generic_name": [
                "SILICEA"
              ],
              "manufacturer_name": [
                "Rxhomeo Private Limited d.b.a. Rxhomeo, Inc"
              ],
              "product_ndc": [
                "15631-0404"
              ],
              "product_type": [
                "HUMAN OTC DRUG"
              ],
              "route": [
                "ORAL"
              ],
              "substance_name": [
                "SILICON DIOXIDE"
              ],
              "spl_id": [
                "ca7bbcc8-2354-375c-e053-2995a90a72a0"
              ]
            }
          }
        ]
      },
      "freeTier": "Free — limits not published",
      "rateLimit": "Unpublished",
      "dataLicense": "Unverified",
      "commercialUse": "unclear",
      "auth": "none"
    },
    {
      "name": "Adoptium",
      "slug": "adoptium",
      "emoji": "☕",
      "tagline": "Temurin JDK release metadata",
      "description": "Java versions, binaries and checksums for Temurin builds. No auth on read endpoints.",
      "sourceCategory": "Development",
      "docsUrl": "https://api.adoptium.net/v3",
      "baseUrl": "https://api.adoptium.net/v3",
      "sampleEndpoint": "/info/release_versions",
      "latencyMs": 6186,
      "corsObserved": true,
      "httpStatus": 200,
      "sampleJson": {
        "versions": [
          {
            "build": 5,
            "major": 28,
            "minor": 0,
            "openjdk_version": "28-beta+5-ea",
            "optional": "ea",
            "pre": "beta",
            "security": 0,
            "semver": "28.0.0-beta+5.0.ea"
          },
          {
            "build": 4,
            "major": 28,
            "minor": 0,
            "openjdk_version": "28-beta+4-ea",
            "optional": "ea",
            "pre": "beta",
            "security": 0,
            "semver": "28.0.0-beta+4.0.ea"
          }
        ]
      },
      "freeTier": "Free — limits not published",
      "rateLimit": "Unpublished",
      "dataLicense": "Unverified",
      "commercialUse": "unclear",
      "auth": "none"
    },
    {
      "name": "Deck of Cards",
      "slug": "deck-of-cards",
      "emoji": "🃏",
      "tagline": "Shuffle and draw virtual decks",
      "description": "Models a physical deck with persistent deck IDs. Perfect for card-game prototypes.",
      "sourceCategory": "Games & Comics",
      "docsUrl": "https://deckofcardsapi.com/api",
      "baseUrl": "https://deckofcardsapi.com/api",
      "sampleEndpoint": "/deck/new/shuffle/?deck_count=1",
      "latencyMs": 2440,
      "corsObserved": true,
      "httpStatus": 200,
      "sampleJson": {
        "success": true,
        "deck_id": "hptb4oo9wkz1",
        "remaining": 52,
        "shuffled": true
      },
      "freeTier": "Free — limits not published",
      "rateLimit": "Unpublished",
      "dataLicense": "Unverified",
      "commercialUse": "unclear",
      "auth": "none"
    },
    {
      "name": "ip-api.com",
      "slug": "ip-api-com",
      "emoji": "🛰",
      "tagline": "Free IP geolocation (non-commercial)",
      "description": "Location and ISP metadata. Free without key on HTTP; HTTPS needs paid plan.",
      "sourceCategory": "Development",
      "docsUrl": "http://ip-api.com",
      "baseUrl": "http://ip-api.com",
      "sampleEndpoint": "/json/8.8.8.8?fields=status,country,city,lat,lon",
      "latencyMs": 1799,
      "corsObserved": true,
      "httpStatus": 200,
      "sampleJson": {
        "status": "success",
        "country": "United States",
        "city": "Ashburn",
        "lat": 39.03,
        "lon": -77.5
      },
      "freeTier": "Free — limits not published",
      "rateLimit": "Unpublished",
      "dataLicense": "Unverified",
      "commercialUse": "unclear",
      "auth": "none"
    },
    {
      "name": "Football-Data.org",
      "slug": "football-data-org",
      "emoji": "⚽",
      "tagline": "European football competitions and tables",
      "description": "Major league competitions, matches and squads. Free registration token required; competitions list is the lightest smoke test.",
      "sourceCategory": "Sports & Fitness",
      "docsUrl": "https://api.football-data.org/v4",
      "baseUrl": "https://api.football-data.org/v4",
      "sampleEndpoint": "/competitions",
      "latencyMs": 684,
      "corsObserved": false,
      "httpStatus": 200,
      "sampleJson": {
        "count": 187,
        "filters": {},
        "competitions": [
          {
            "id": 2176,
            "area": {
              "id": 2001,
              "name": "Africa",
              "code": "AFR",
              "flag": null
            },
            "name": "Africa Cup",
            "code": "AC",
            "type": "CUP",
            "emblem": "https://crests.football-data.org/ac.png",
            "plan": "TIER_FOUR",
            "currentSeason": {
              "id": 2385,
              "startDate": "2025-12-21",
              "endDate": "2026-01-18",
              "currentMatchday": 3,
              "winner": null
            }
          },
          {
            "id": 2166,
            "area": {
              "id": 2001,
              "name": "Africa",
              "code": "AFR",
              "flag": null
            },
            "name": "AFC Champions League",
            "code": "ACL",
            "type": "CUP",
            "emblem": null,
            "plan": "TIER_FOUR",
            "currentSeason": {
              "id": 1559,
              "startDate": "2022-04-06",
              "endDate": "2023-05-05",
              "currentMatchday": null,
              "winner": null
            }
          }
        ]
      },
      "freeTier": "Free — limits not published",
      "rateLimit": "Unpublished",
      "dataLicense": "Unverified",
      "commercialUse": "unclear",
      "auth": "none"
    },
    {
      "name": "7Timer!",
      "slug": "7timer",
      "emoji": "🌤",
      "tagline": "Numeric weather forecast for any lat/lon",
      "description": "Machine-readable forecasts from a GFS-derived model. No key; legacy host may be HTTP-only.",
      "sourceCategory": "Weather",
      "docsUrl": "http://www.7timer.info",
      "baseUrl": "http://www.7timer.info",
      "sampleEndpoint": "/bin/api.pl?lon=13.4&lat=52.5&product=civil&output=json",
      "latencyMs": 5499,
      "corsObserved": false,
      "httpStatus": 200,
      "sampleJson": {
        "product": "civil",
        "init": "2026070512",
        "dataseries": [
          {
            "timepoint": 3,
            "cloudcover": 8,
            "lifted_index": 2,
            "prec_type": "none",
            "prec_amount": 0,
            "temp2m": 22,
            "rh2m": "47%",
            "wind10m": {
              "direction": "NW",
              "speed": 4
            }
          },
          {
            "timepoint": 6,
            "cloudcover": 9,
            "lifted_index": 2,
            "prec_type": "none",
            "prec_amount": 0,
            "temp2m": 20,
            "rh2m": "53%",
            "wind10m": {
              "direction": "NW",
              "speed": 3
            }
          }
        ]
      },
      "freeTier": "Free — limits not published",
      "rateLimit": "Unpublished",
      "dataLicense": "Unverified",
      "commercialUse": "unclear",
      "auth": "none"
    },
    {
      "name": "HTTPie",
      "slug": "httpie",
      "emoji": "🔧",
      "tagline": "HTTPie — a free command-line HTTP client for the API era",
      "description": "HTTPie exposes a free command-line HTTP client for the API era We verified a keyless GET endpoint returning JSON (Development). Check the provider docs for rate limits and terms before production use.",
      "sourceCategory": "Development",
      "docsUrl": "https://httpie.io",
      "baseUrl": "https://httpie.io",
      "sampleEndpoint": "/api/feed/json",
      "latencyMs": 369,
      "corsObserved": false,
      "httpStatus": 200,
      "sampleJson": {
        "version": "https://jsonfeed.org/version/1",
        "title": "HTTPie blog",
        "home_page_url": "https://httpie.io/blog",
        "items": [
          {
            "id": "https://httpie.io/blog/changelog-0027",
            "content_html": "Check out what’s new in HTTPie for Web & Desktop 2025.2.0",
            "url": "https://httpie.io/blog/changelog-0027",
            "title": "Changelog #0027 — 📤 Export/import, path params, copy as command, and more",
            "summary": "Check out what’s new in HTTPie for Web & Desktop 2025.2.0",
            "date_modified": "2025-03-14T00:00:00.000Z",
            "author": {
              "name": "Jakub Roztocil",
              "url": "https://twitter.com/jkbrzt"
            }
          },
          {
            "id": "https://httpie.io/blog/changelog-0026",
            "content_html": "Check out what’s new in HTTPie for Web & Desktop 2025.1.0",
            "url": "https://httpie.io/blog/changelog-0026",
            "title": "Changelog #0026 — 💇‍♀️️ UI refresh, IDE-like features, enhanced variable system",
            "summary": "Check out what’s new in HTTPie for Web & Desktop 2025.1.0",
            "date_modified": "2025-01-20T00:00:00.000Z",
            "author": {
              "name": "Jakub Roztocil",
              "url": "https://twitter.com/jkbrzt"
            }
          }
        ]
      },
      "freeTier": "Free — limits not published",
      "rateLimit": "Unpublished",
      "dataLicense": "Unverified",
      "commercialUse": "unclear",
      "auth": "none",
      "notes": "Auto-probed https://httpie.io/api/feed/json"
    },
    {
      "name": "Zelda",
      "slug": "zelda",
      "emoji": "🎮",
      "tagline": "Zelda — The Legend of Zelda franchise data",
      "description": "Zelda exposes the Legend of Zelda franchise data We verified a keyless GET endpoint returning JSON (Games & Comics). Check the provider docs for rate limits and terms before production use.",
      "sourceCategory": "Games & Comics",
      "docsUrl": "https://docs.zelda.fanapis.com/docs",
      "baseUrl": "https://zelda.fanapis.com",
      "sampleEndpoint": "/api/games?limit=2",
      "latencyMs": 267,
      "corsObserved": true,
      "httpStatus": 200,
      "sampleJson": {
        "success": true,
        "count": 2,
        "data": [
          {
            "name": "The Legend of Zelda",
            "description": "The Legend of Zelda is the first installment of the Zelda series. It centers its plot around a boy named Link, who becomes the central protagonist throughout the series. It came out as early as 1986 for the Famicom in Japan, and was later released in the western world, including Europe and the US in 1987. It has since then been re-released several times, for the Nintendo GameCube as well as the Game Boy Advance. The Japanese version of the game on the Famicom is known as The Hyrule Fantasy: The Legend of Zelda. ",
            "developer": "Nintendo R&D 4",
            "publisher": "Nintendo",
            "released_date": " February 21, 1986",
            "id": "5f6ce9d805615a85623ec2b7"
          },
          {
            "name": "The Legend of Zelda: A Link to the Past",
            "description": "One day, a band of evil thieves managed to open the gateway to the Sacred Realm, where the mystical Triforce was hidden. Upon finding the sacred golden relic, the leader of the thieves, Ganondorf, slew his followers and claimed it as his own. Before long, dark power began to flow forth from the Sacred Realm. People were drawn into this darkness, and never heard from again. As a result, the King of Hyrule ordered the seven sages to seal the entrance to the Sacred Realm. A great battle ensued—monsters poured into the Light World from the sacred land and attacked the castle. The Knights of Hyrule defended the sages during the great battle against evil, and, though most of them perished in the struggle, the sages were able to cast their seal, stopping the flow of darkness and trapping the evil king Ganon within. This battle became known as the Imprisoning War. ",
            "developer": "Nintendo",
            "publisher": "Nintendo",
            "released_date": " April 13, 1992",
            "id": "5f6ce9d805615a85623ec2b8"
          }
        ]
      },
      "freeTier": "Free — limits not published",
      "rateLimit": "Unpublished",
      "dataLicense": "Unverified",
      "commercialUse": "unclear",
      "auth": "none",
      "notes": "Auto-probed https://zelda.fanapis.com/api/games?limit=2"
    },
    {
      "name": "LectServe",
      "slug": "lectserve",
      "emoji": "🔌",
      "tagline": "LectServe — auto-discovered JSON endpoint",
      "description": "Protestant liturgical calendar",
      "sourceCategory": "Calendar",
      "docsUrl": "http://www.lectserve.com",
      "baseUrl": "http://www.lectserve.com",
      "sampleEndpoint": "/today",
      "latencyMs": 1374,
      "corsObserved": true,
      "httpStatus": 200,
      "sampleJson": {
        "red_letter": {
          "day": "Sunday",
          "nextSunday": "2026-07-12",
          "year": "A",
          "date_pretty": "5. July 2026",
          "date": "2026-07-05",
          "type": "Sunday",
          "services": [
            {
              "alt": "",
              "readings": [
                "Zechariah 9:9-12",
                "Psalm 145:1-13; (145:14-21)"
              ],
              "name": "Sunday Closest to July 6"
            }
          ],
          "prevSunday": "2026-06-28"
        },
        "daily": {
          "yesterday": "2026-07-04",
          "day": "Sunday",
          "date_pretty": "5. July 2026",
          "date": "2026-07-05",
          "week": "Sunday Closest to July 6",
          "tomorrow": "2026-07-06",
          "readings": {
            "morning": {
              "second": "1 Corinthians 4:18-5 end",
              "first": "Judges 16"
            },
            "evening": {
              "first": "Esther 1",
              "second": "Acts 27"
            }
          },
          "lectionary": "acna-sec"
        },
        "sunday": {
          "nextSunday": "2026-07-12",
          "day": "Sunday",
          "year": "A",
          "date": "2026-07-05",
          "date_pretty": "5. July 2026",
          "services": [
            {
              "name": "Sunday Closest to July 6",
              "readings": [
                "Zechariah 9:9-12",
                "Psalm 145:1-13; (145:14-21)"
              ],
              "alt": ""
            }
          ],
          "prevSunday": "2026-06-28",
          "lectionary": "acna"
        }
      },
      "freeTier": "Free — limits not published",
      "rateLimit": "Unpublished",
      "dataLicense": "Unverified",
      "commercialUse": "unclear",
      "auth": "none"
    }
  ],
  "skipped": []
}
